Music Name, Image Name,Elapsed Time (ms),Button
happy.mp3,Happy face 2.jpg,741,happy
happy.mp3,Frustrated pose 4.jpg,632,sad
happy.mp3,Depressed face 1.jpg,608,sad
happy.mp3,Surprise 1.jpg,1864,happy
happy.mp3,Excited face 4.jpg,768,happy
happy.mp3,Excited face 4.jpg,448,happy
happy.mp3,Frustrated pose 6.jpg,576,happy
happy.mp3,Nude woman 6.jpg,544,happy
happy.mp3,Angry face 4.jpg,600,sad
happy.mp3,Neutral face 4.jpg,648,sad
happy.mp3,Bored pose 4.jpg,551,sad
happy.mp3,Sad face 2.jpg,488,sad
happy.mp3,Frustrated pose 2.jpg,536,sad
happy.mp3,Nude woman 6.jpg,688,happy
happy.mp3,Exercise 1.jpg,520,sad
happy.mp3,Sad face 8.jpg,552,sad
happy.mp3,Doctor 6.jpg,712,sad
happy.mp3,Sad face 5.jpg,592,sad
happy.mp3,Sad face 7.jpg,575,sad
happy.mp3,Surprise 1.jpg,616,happy
happy.mp3,Baby 9.jpg,697,happy
happy.mp3,Bored pose 2.jpg,632,sad
happy.mp3,Sad face 8.jpg,912,sad
happy.mp3,Sad face 2.jpg,464,sad
happy.mp3,Excited face 6.jpg,552,happy
