Music Name, Image Name,Elapsed Time (ms),Button
happy.mp3,Sad face 6.jpg,2231,sad
happy.mp3,Bored pose 5.jpg,656,sad
happy.mp3,Eating 1.jpg,536,happy
happy.mp3,Happy face 1.jpg,592,happy
happy.mp3,Frustrated pose 2.jpg,760,sad
happy.mp3,Surprise 1.jpg,1408,happy
happy.mp3,Excited face 5.jpg,680,sad
happy.mp3,Frustrated pose 7.jpg,992,sad
happy.mp3,Doctor 6.jpg,824,sad
happy.mp3,Neutral face 5.jpg,568,sad
happy.mp3,Eating 2.jpg,552,happy
happy.mp3,Bored pose 5.jpg,624,sad
happy.mp3,Neutral face 3.jpg,631,happy
happy.mp3,Excited face 2.jpg,593,sad
happy.mp3,Picnic 2.jpg,889,happy
happy.mp3,Sad face 7.jpg,767,sad
happy.mp3,Frustrated pose 5.jpg,2768,sad
happy.mp3,Eating 2.jpg,584,happy
happy.mp3,Miserable face 1.jpg,816,sad
happy.mp3,Scared face 5.jpg,960,sad
happy.mp3,Frustrated pose 3.jpg,488,sad
happy.mp3,Neutral face 4.jpg,1048,sad
happy.mp3,Siblings 1.jpg,625,happy
happy.mp3,Frustrated pose 3.jpg,704,sad
happy.mp3,Bored pose 2.jpg,751,sad
