Music Name, Image Name,Elapsed Time (ms),Button
happy.mp3,Sad face 2.jpg,841,sad
happy.mp3,Bored face 1.jpg,673,sad
happy.mp3,Intensity 1.jpg,640,sad
happy.mp3,Angry face 5.jpg,712,sad
happy.mp3,Mother 2.jpg,720,happy
happy.mp3,Sad face 9.jpg,576,sad
happy.mp3,Baby 7.jpg,633,sad
happy.mp3,Sad face 2.jpg,487,sad
happy.mp3,Scared face 4.jpg,664,sad
happy.mp3,Frustrated pose 1.jpg,665,sad
happy.mp3,Miserable face 2.jpg,951,sad
happy.mp3,Miserable face 2.jpg,874,sad
happy.mp3,Scared face 4.jpg,552,sad
happy.mp3,Frustrated pose 2.jpg,583,sad
happy.mp3,Baby 6.jpg,496,sad
happy.mp3,Depressed face 2.jpg,545,sad
happy.mp3,Doctor 6.jpg,704,happy
happy.mp3,Excited face 6.jpg,616,happy
happy.mp3,Neutral face 3.jpg,504,happy
happy.mp3,Nude woman 6.jpg,464,happy
happy.mp3,Mother 2.jpg,536,happy
happy.mp3,Neutral face 5.jpg,416,happy
happy.mp3,Neutral face 4.jpg,841,sad
happy.mp3,Angry face 2.jpg,1000,sad
happy.mp3,Excited face 7.jpg,664,happy
