Music Name, Image Name,Elapsed Time (ms),Button
happy.mp3,Mother 2.jpg,1158,happy
happy.mp3,Neutral face 4.jpg,2207,sad
happy.mp3,Angry face 2.jpg,768,sad
happy.mp3,Sleepy pose 3.jpg,920,sad
happy.mp3,Miserable face 2.jpg,1209,sad
happy.mp3,Mother 6.jpg,999,happy
happy.mp3,Eating 2.jpg,712,happy
happy.mp3,Frustrated pose 6.jpg,760,happy
happy.mp3,Exercise 1.jpg,816,sad
happy.mp3,Intensity 1.jpg,840,sad
happy.mp3,Bored pose 6.jpg,3864,happy
happy.mp3,Bored face 1.jpg,1823,sad
happy.mp3,Surprise 2.jpg,1360,happy
happy.mp3,Neutral face 4.jpg,3120,sad
happy.mp3,Baby 7.jpg,799,sad
happy.mp3,Frustrated pose 5.jpg,649,sad
happy.mp3,Mother 8.jpg,656,happy
happy.mp3,Excited face 2.jpg,864,happy
happy.mp3,Frustrated pose 6.jpg,688,happy
happy.mp3,Frustrated pose 1.jpg,1016,sad
happy.mp3,Exercise 1.jpg,848,happy
happy.mp3,Mother 8.jpg,808,happy
happy.mp3,Bored face 1.jpg,880,sad
happy.mp3,Scared face 1.jpg,680,sad
happy.mp3,Mother 6.jpg,1263,happy
