Music Name, Image Name,Elapsed Time (ms),Button
happy.mp3,Scared face 2.jpg,786,sad
happy.mp3,Excited face 4.jpg,808,happy
happy.mp3,Mother 6.jpg,841,happy
happy.mp3,Frustrated pose 4.jpg,552,sad
happy.mp3,Exercise 1.jpg,1064,happy
happy.mp3,Tickling 1.jpg,592,happy
happy.mp3,Mother 4.jpg,624,happy
happy.mp3,Angry face 5.jpg,736,happy
happy.mp3,Sad face 7.jpg,1121,sad
happy.mp3,Angry face 5.jpg,655,sad
happy.mp3,Frustrated pose 1.jpg,913,sad
happy.mp3,Sad face 9.jpg,584,sad
happy.mp3,Scared face 5.jpg,632,sad
happy.mp3,Sad face 6.jpg,1152,sad
happy.mp3,Frustrated pose 3.jpg,512,sad
happy.mp3,Frustrated pose 7.jpg,985,sad
happy.mp3,Sleepy pose 3.jpg,576,sad
happy.mp3,Excited face 7.jpg,848,happy
happy.mp3,Baby 7.jpg,576,sad
happy.mp3,Depressed face 2.jpg,656,sad
happy.mp3,Bored pose 4.jpg,648,sad
happy.mp3,Father 1.jpg,832,sad
happy.mp3,Scared face 2.jpg,1985,sad
happy.mp3,Sad face 8.jpg,760,sad
happy.mp3,Scared face 1.jpg,688,sad
