Music Name, Image Name,Elapsed Time (ms),Button
sad.mp3,Intensity 1.jpg,1380,sad
sad.mp3,Neutral face 4.jpg,608,sad
sad.mp3,Bored pose 5.jpg,608,sad
sad.mp3,Baby 9.jpg,743,happy
sad.mp3,Frustrated pose 6.jpg,512,sad
sad.mp3,Mother 2.jpg,655,sad
sad.mp3,Sad face 1.jpg,775,sad
sad.mp3,Siblings 1.jpg,575,happy
sad.mp3,Miserable face 1.jpg,592,sad
sad.mp3,Sad face 9.jpg,648,sad
sad.mp3,Bored face 1.jpg,647,sad
sad.mp3,Surprise 1.jpg,1199,happy
sad.mp3,Frustrated pose 2.jpg,911,sad
sad.mp3,Sleepy pose 1.jpg,928,sad
sad.mp3,Excited face 2.jpg,1646,happy
sad.mp3,Surprise 1.jpg,703,happy
sad.mp3,Depressed face 2.jpg,665,sad
sad.mp3,Excited face 7.jpg,679,happy
sad.mp3,Frustrated pose 2.jpg,512,sad
sad.mp3,Bored face 1.jpg,870,sad
sad.mp3,Scared face 3.jpg,752,sad
sad.mp3,Depressed face 2.jpg,1047,sad
sad.mp3,Tickling 1.jpg,759,happy
sad.mp3,Neutral face 2.jpg,1376,happy
sad.mp3,Scared face 3.jpg,831,sad
